{
  "name": "livestampjs",
  "repo": "madebybottle/livestampjs",
  "description": "Auto-updating of time-ago fields using moment",
  "version": "0.0.1",
  "keywords": [],
  "dependencies": {
  },
  "development": {},
  "license": "MIT",
  "main": "index.js",
  "scripts": [
    "index.js",
    "livestamp.js"
  ]
}
